/* XPM */
static char *network_xpm[] = {
/* columns rows colors chars-per-pixel */
"16 12 37 1",
"  c Gray0",
". c #010101",
"X c #000202",
"o c #020201",
"O c #020202",
"+ c #060006",
"@ c #050504",
"# c #080909",
"$ c Gray4",
"% c Gray5",
"& c #101000",
"* c #111100",
"= c #121200",
"- c #181804",
"; c #1f1f00",
": c #121312",
"> c #1b1b19",
", c #002200",
"< c #052827",
"1 c #23011f",
"2 c #7c7c23",
"3 c #42424d",
"4 c #4a4a59",
"5 c #555554",
"6 c #555555",
"7 c #565656",
"8 c Gray35",
"9 c #7d7d45",
"0 c #777777",
"q c None",
"w c #96964f",
"e c #a6a649",
"r c #91ffa2",
"t c #ff8e9e",
"y c #c4c497",
"u c #e6ffe7",
"i c Gray100",
/* pixels */
"qqqqq9;qqqqqqqqq",
"qqqqqoqqqqqqqqq*",
"qqqqqoqqo066663y",
"qqqqq#qqoqqqqqqq",
"oqq%ooo#o<1+:qqq",
"948oiiiiitruo>oe",
"qqqooooooo,ooqq*",
"qqqqqq#qqqoqqqqq",
"&qqqqqoqqqoqqqqq",
"wo@ooooqqqoqqqqq",
"qqqqqqqqqqoqqqqq",
"qqqqqqqqqq2-qqqq"
};
